Analysis of the behavior of dairy cattle using R - 4 Data manipulation
…
4.1 Basic Data Manipulation with dplyr

We’ll cover the fundamental data manipulation functions provided by the dplyr package in R such as: mutate() for adding or modifying variables, summarize() for calculating summary statistics ,group_by() and ungroup() for grouping and ungrouping data,filter() fro filtering rows, select() for selecting columns and arrange() for sorting data.

mutate() - Adding or Modifying Variables

The mutate() function is used to create new variables or modify existing ones.

# Adding a new variable: milk_per_cow_kg
mutated_data <- state_milk_production |>
  mutate(milk_produced_kg = milk_produced * 0.453592)  # Convert pounds to kilograms

print(mutated_data)

# A tibble: 2,400 × 5
   region    state          year milk_produced milk_produced_kg
   <chr>     <chr>         <dbl>         <dbl>            <dbl>
 1 Northeast Maine          1970     619000000        280773448
 2 Northeast New Hampshire  1970     356000000        161478752
 3 Northeast Vermont        1970    1970000000        893576240
 4 Northeast Massachusetts  1970     658000000        298463536
 5 Northeast Rhode Island   1970      75000000         34019400
 6 Northeast Connecticut    1970     661000000        299824312
 7 Northeast New York       1970   10341000000       4690594872
 8 Northeast New Jersey     1970     730000000        331122160
 9 Northeast Pennsylvania   1970    7124000000       3231389408
10 Northeast Delaware       1970     130000000         58966960
# ℹ 2,390 more rows

summarize() - Calculating Summary Statistics

The summarize() function calculates summary statistics for a specific group.

# Calculate the total milk produced for each state
summary_data <- state_milk_production |>
  group_by(state) |>
  summarize(total_milk_produced = sum(milk_produced))
print(summary_data)

# A tibble: 50 × 2
   state       total_milk_produced
   <chr>                     <dbl>
 1 Alabama             20764000000
 2 Alaska                675000000
 3 Arizona            116937000000
 4 Arkansas            26070000000
 5 California        1219691000000
 6 Colorado            86232000000
 7 Connecticut         24574000000
 8 Delaware             6094000000
 9 Florida            106660000000
10 Georgia             67745000000
# ℹ 40 more rows

group_by() - Grouping Data

The group_by() function is used to group data by a specific variable.

# Group data by year and calculate the average milk produced
grouped_data <- state_milk_production |>
  group_by(year) |>
  summarize(avg_milk_produced = mean(milk_produced))

print(grouped_data)

# A tibble: 48 × 2
    year avg_milk_produced
   <dbl>             <dbl>
 1  1970        2340140000
 2  1971        2371320000
 3  1972        2400500000
 4  1973        2309820000
 5  1974        2311720000
 6  1975        2307960000
 7  1976        2403600000
 8  1977        2453080000
 9  1978        2429220000
10  1979        2467020000
# ℹ 38 more rows
…
# A tibble: 0 × 4
# ℹ 4 variables: region <chr>, state <chr>, year <dbl>, milk_produced <dbl>

select() - Selecting Columns

The select() function is used to select specific columns.

# Select only the "state" and "milk_produced" columns
selected_data <- state_milk_production %>%
  select(state, milk_produced)

print(selected_data)

# A tibble: 2,400 × 2
   state         milk_produced
   <chr>                 <dbl>
 1 Maine             619000000
 2 New Hampshire     356000000
 3 Vermont          1970000000
 4 Massachusetts     658000000
 5 Rhode Island       75000000
 6 Connecticut       661000000
 7 New York        10341000000
 8 New Jersey        730000000
 9 Pennsylvania     7124000000
10 Delaware          130000000
# ℹ 2,390 more rows

4.1.1 arrange() - Sorting Data

The arrange() function is used to sort data by one or more variables.

# Arrange data by year in descending order
sorted_data <- state_milk_production %>%
  arrange(desc(year))

print(sorted_data)

# A tibble: 2,400 × 4
   region    state          year milk_produced
   <chr>     <chr>         <dbl>         <dbl>
 1 Northeast Maine          2017     630000000
 2 Northeast New Hampshire  2017     273000000
 3 Northeast Vermont        2017    2728000000
 4 Northeast Massachusetts  2017     211000000
 5 Northeast Rhode Island   2017      13000000
 6 Northeast Connecticut    2017     420000000
 7 Northeast New York       2017   14912000000
 8 Northeast New Jersey     2017     119000000
 9 Northeast Pennsylvania   2017   10938000000
10 Northeast Delaware       2017      93000000
# ℹ 2,390 more rows
…
# Import data from the internet
milk_cow_facts <- read_csv(data_url, show_col_types = FALSE)

join() - Combining datasets

The join() function is used to combine multiple datasets based on common keys, allowing you to create more complex datasets.

# Joining two datasets based on a common variable (e.g., year)
combined_data <- milk_cow_facts |>
  left_join(grouped_data, by = "year")

print(combined_data)

# A tibble: 35 × 12
    year avg_milk_cow_number milk_per_cow milk_production_lbs avg_price_milk
   <dbl>               <dbl>        <dbl>               <dbl>          <dbl>
 1  1980            10799000        11891        128406000000          0.13 
 2  1981            10898000        12183        132770000000          0.138
 3  1982            11011000        12306        135505000000          0.136
 4  1983            11059000        12622        139588000000          0.136
 5  1984            10793000        12541        135351000000          0.135
 6  1985            10981000        13024        143012000000          0.127
 7  1986            10773000        13285        143124000000          0.125
 8  1987            10327000        13819        142709000000          0.125
 9  1988            10224000        14185        145034000000          0.122
10  1989            10046000        14323        143893000000          0.136
# ℹ 25 more rows
# ℹ 7 more variables: dairy_ration <dbl>, milk_feed_price_ratio <dbl>,
#   milk_cow_cost_per_animal <dbl>, milk_volume_to_buy_cow_in_lbs <dbl>,
#   alfalfa_hay_price <dbl>, slaughter_cow_price <dbl>, avg_milk_produced <dbl>

Advanced Filtering with between()

In data analysis, advanced filtering often requires the ability to select rows based on specific numeric ranges. The between() function in R is a powerful tool that enables advanced filtering by allowing you to extract rows where a variable falls within a defined range. Let’s explore how to use this function for more complex filtering tasks. For instance, suppose you want to perform advanced filtering to select rows with years falling within the range of 2015 to 2020:

# Advanced filtering: Select data for a specific range of years
filtered_data <- state_milk_production |>
  filter(between(year, 2015, 2020))

print(filtered_data)

# A tibble: 150 × 4
   region    state          year milk_produced
   <chr>     <chr>         <dbl>         <dbl>
 1 Northeast Maine          2015     594000000
 2 Northeast New Hampshire  2015     282000000
 3 Northeast Vermont        2015    2666000000
 4 Northeast Massachusetts  2015     217000000
 5 Northeast Rhode Island   2015      16000000
 6 Northeast Connecticut    2015     396000000
 7 Northeast New York       2015   14094000000
 8 Northeast New Jersey     2015     127000000
 9 Northeast Pennsylvania   2015   10800000000
10 Northeast Delaware       2015      99000000
# ℹ 140 more rows
case_when() - Conditional transformations filtered_data

The case_when() function is used to perform conditional transformations, allowing you to create new variables based on multiple conditions.

# Create a new variable "milk_prod" based on conditions
transformed_data <- milk_cow_facts |>
  mutate(milk_prod = case_when(
    milk_per_cow > 19000 ~ "High",
    milk_per_cow > 14000 ~ "Medium",
    TRUE ~ "Low"
  ))

print(transformed_data)

# A tibble: 35 × 12
    year avg_milk_cow_number milk_per_cow milk_production_lbs avg_price_milk
   <dbl>               <dbl>        <dbl>               <dbl>          <dbl>
 1  1980            10799000        11891        128406000000          0.13 
 2  1981            10898000        12183        132770000000          0.138
 3  1982            11011000        12306        135505000000          0.136
 4  1983            11059000        12622        139588000000          0.136
 5  1984            10793000        12541        135351000000          0.135
 6  1985            10981000        13024        143012000000          0.127
 7  1986            10773000        13285        143124000000          0.125
 8  1987            10327000        13819        142709000000          0.125
 9  1988            10224000        14185        145034000000          0.122
10  1989            10046000        14323        143893000000          0.136
# ℹ 25 more rows
# ℹ 7 more variables: dairy_ration <dbl>, milk_feed_price_ratio <dbl>,
#   milk_cow_cost_per_animal <dbl>, milk_volume_to_buy_cow_in_lbs <dbl>,
#   alfalfa_hay_price <dbl>, slaughter_cow_price <dbl>, milk_prod <chr>

mutate_at() - Applying functions to multiple columns.

The mutate_at() function allows you to apply a function to multiple columns simultaneously.

# Apply the transformation to selected columns
transformed_data <- milk_cow_facts |>
  mutate_at(vars(milk_production_lbs, milk_per_cow), function(x) x * 0.453592)

print(transformed_data)

# A tibble: 35 × 11
    year avg_milk_cow_number milk_per_cow milk_production_lbs avg_price_milk
   <dbl>               <dbl>        <dbl>               <dbl>          <dbl>
 1  1980            10799000        5394.         58243934352          0.13 
 2  1981            10898000        5526.         60223409840          0.138
 3  1982            11011000        5582.         61463983960          0.136
 4  1983            11059000        5725.         63316000096          0.136
 5  1984            10793000        5688.         61394130792          0.135
 6  1985            10981000        5908.         64869099104          0.127
 7  1986            10773000        6026.         64919901408          0.125
 8  1987            10327000        6268.         64731660728          0.125
 9  1988            10224000        6434.         65786262128          0.122
10  1989            10046000        6497.         65268713656          0.136
# ℹ 25 more rows
# ℹ 6 more variables: dairy_ration <dbl>, milk_feed_price_ratio <dbl>,
#   milk_cow_cost_per_animal <dbl>, milk_volume_to_buy_cow_in_lbs <dbl>,
#   alfalfa_hay_price <dbl>, slaughter_cow_price <dbl>

group_by() with multiple variables - Multi-level grouping

You can use group_by() with multiple variables to create multi-level grouping for more complex summaries.

# Group data by region and year and calculate summary statistics
multi_level_grouped_data <- state_milk_production |>
  group_by(region, year) |>
  summarize(total_milk_produced = sum(milk_produced))

print(multi_level_grouped_data)

# A tibble: 480 × 3
# Groups:   region [10]
   region       year total_milk_produced
   <chr>       <dbl>               <dbl>
 1 Appalachian  1970          8202000000
 2 Appalachian  1971          8216000000
 3 Appalachian  1972          8389000000
 4 Appalachian  1973          7900000000
 5 Appalachian  1974          7858000000
 6 Appalachian  1975          7953000000
 7 Appalachian  1976          8292000000
 8 Appalachian  1977          8434000000
 9 Appalachian  1978          8109000000
10 Appalachian  1979          8163000000
# ℹ 470 more rows

4.3 Exercises

Exercise 1: Filtering and Selecting

Filter the milk_cow_facts dataset to retain only rows for the year 2015. Then, select and display the total milk production in pounds (milk_produced).

# Exercise 1: Filtering and Selecting
filtered_data <- state_milk_production |>
  filter(year == 2015) |>
  select(state, milk_produced)

filtered_data

# A tibble: 50 × 2
   state         milk_produced
   <chr>                 <dbl>
 1 Maine             594000000
 2 New Hampshire     282000000
 3 Vermont          2666000000
 4 Massachusetts     217000000
 5 Rhode Island       16000000
 6 Connecticut       396000000
 7 New York        14094000000
 8 New Jersey        127000000
 9 Pennsylvania    10800000000
10 Delaware           99000000
# ℹ 40 more rows

Exercise 2: Grouping and Summarizing

Group the milkcow_facts dataset by the year variable. Calculate the average milk production per cow (milk_per_cow) for each year.

# Exercise 2: Grouping and Summarizing
summary_data <- milk_cow_facts |>
  group_by(year) |>
  summarize(avg_milk_per_cow = mean(milk_per_cow, na.rm = TRUE))

summary_data

# A tibble: 35 × 2
    year avg_milk_per_cow
   <dbl>            <dbl>
 1  1980            11891
 2  1981            12183
 3  1982            12306
 4  1983            12622
 5  1984            12541
 6  1985            13024
 7  1986            13285
 8  1987            13819
 9  1988            14185
10  1989            14323
# ℹ 25 more rows
…
